Praktikum 6 Analisis Regresi
…
## 
## Attaching package: 'olsrr'

## The following object is masked from 'package:datasets':
## 
##     rivers

dt <- read_xlsx(
"C:\\Users\\USER\\OneDrive\\ドキュメント\\Mata Kuliah Semester 4\\Analisis Regresi\\Data Pengangguran_Qurrota A'yunina_M0401241049.xlsx",
sheet = "Data"
)

dt

## # A tibble: 38 × 8
##    Provinsi          Y    X1    X2       X3    X4       X5       X6
##    <chr>         <dbl> <dbl> <dbl>    <dbl> <dbl>    <dbl>    <dbl>
##  1 Aceh           5.64 10.4  14.2  1299756.  36.2 3685616   4155944
##  2 Bali           1.49 10.1   4    1964618.  74.3 2996561   3547519
##  3 Banten         6.69  9.82  5.84 1750546.  73.7 3876600   9539824
##  4 Bengkulu       3.41  9.71 13.6  1498744.  33.5 2905120.  1608738
##  5 DI Yogyakarta  3.46 10.6  10.8  1843212.  78   2670039.  3049126
##  6 DKI Jakarta    6.05 11.6   4.3  2962412. 100   2264081.  8430623
##  7 Gorontalo      3.42  8.78 14.6  1315738.  48.9 5396761    946299
##  8 Jambi          4.26  9.32  7.1  1477104.  34.8 3221731   2829000
##  9 Jawa Barat     6.77  9.46  7.46 1724367.  83.1 3234535  39237385
## 10 Jawa Tengah    4.66  8.62 10.5  1337028.  54.3 2191232. 30037087
## # ℹ 28 more rows
…
